<svg xmlns="http://www.w3.org/2000/svg" width="20.871" height="20.871" viewBox="0 0 20.871 20.871">
  <g id="_10" data-name="10" transform="translate(-1.376 -5.627)">
    <g id="Group_36667" data-name="Group 36667">
      <path id="Path_36915" data-name="Path 36915" d="M11.37,2.663A8.715,8.715,0,0,0,3.941,15.931l.191.312-1.547,3.61a.235.235,0,0,0,.309.309L6.5,18.615l.311.191A8.714,8.714,0,1,0,11.37,2.663ZM1.244,11.376A10.123,10.123,0,1,1,6.4,20.2L3.451,21.46A1.649,1.649,0,0,1,1.286,19.3l1.262-2.944a10.083,10.083,0,0,1-1.3-4.976ZM6.9,9.492A.706.706,0,0,1,7.6,8.786h2.826a.706.706,0,1,1,0,1.413H7.6A.706.706,0,0,1,6.9,9.492Zm0,3.768a.706.706,0,0,1,.706-.706h7.536a.706.706,0,0,1,0,1.413H7.6A.706.706,0,0,1,6.9,13.26Z" transform="translate(0.5 4.627)" fill="#fff" stroke="#1b73e8" stroke-width="0.5" fill-rule="evenodd"/>
    </g>
  </g>
</svg>
