<svg xmlns="http://www.w3.org/2000/svg" width="18.677" height="18.676" viewBox="0 0 18.677 18.676">
  <path id="Path_36916" data-name="Path 36916" d="M3.6,2.523a.939.939,0,0,0-.98,1A16.346,16.346,0,0,0,17.245,18.147a.939.939,0,0,0,1-.98v-3.02a1.061,1.061,0,0,0-.726-1.007l-2.937-.98a1.061,1.061,0,0,0-1.086.256l-.47.47a1.469,1.469,0,0,1-1.868.181A11.575,11.575,0,0,1,7.674,9.6a1.464,1.464,0,0,1,.194-1.845l.48-.48A1.061,1.061,0,0,0,8.6,6.185l-.98-2.937A1.061,1.061,0,0,0,6.62,2.523ZM1.35,3.645A2.211,2.211,0,0,1,3.6,1.25H6.619a2.334,2.334,0,0,1,2.214,1.6l.98,2.937a2.334,2.334,0,0,1-.564,2.389l-.48.48a.191.191,0,0,0-.032.24,10.313,10.313,0,0,0,3.138,3.124.2.2,0,0,0,.249-.03l.47-.47a2.334,2.334,0,0,1,2.389-.564l2.937.98a2.334,2.334,0,0,1,1.6,2.215v3.02a2.211,2.211,0,0,1-2.395,2.248A17.619,17.619,0,0,1,1.35,3.645Zm11.8-1.758a.637.637,0,0,1,.637-.637,5.73,5.73,0,0,1,5.73,5.73.637.637,0,1,1-1.273,0,4.456,4.456,0,0,0-4.457-4.457A.637.637,0,0,1,13.148,1.887Zm0,3.4a.637.637,0,0,1,.637-.637A2.334,2.334,0,0,1,16.119,6.98a.637.637,0,1,1-1.273,0,1.061,1.061,0,0,0-1.061-1.061A.637.637,0,0,1,13.148,5.282Z" transform="translate(-1.088 -1)" fill="#F58112" stroke="#F58112" stroke-width="0.5" fill-rule="evenodd"/>
</svg>
